Aula 5
…
1.3 Antes do pipe

Como as pessoas escreviam seus códigos antes do pipe?

Usando o pacote pinguins, calcule a média da massa corporal dos pinguins da
espécie “Pinguim-de-adélia” em diferentes ilhas.

Primeiro, vamos ler nossa base e visualizá-la:

pinguins

## # A tibble: 344 × 8
##    especie           ilha     comprimento_bico profundidade_bi… comprimento_nad…
##    <fct>             <fct>               <dbl>            <dbl>            <int>
##  1 Pinguim-de-adélia Torgers…             39.1             18.7              181
##  2 Pinguim-de-adélia Torgers…             39.5             17.4              186
##  3 Pinguim-de-adélia Torgers…             40.3             18                195
##  4 Pinguim-de-adélia Torgers…             NA               NA                 NA
##  5 Pinguim-de-adélia Torgers…             36.7             19.3              193
##  6 Pinguim-de-adélia Torgers…             39.3             20.6              190
##  7 Pinguim-de-adélia Torgers…             38.9             17.8              181
##  8 Pinguim-de-adélia Torgers…             39.2             19.6              195
##  9 Pinguim-de-adélia Torgers…             34.1             18.1              193
## 10 Pinguim-de-adélia Torgers…             42               20.2              190
## # … with 334 more rows, and 3 more variables: massa_corporal <int>, sexo <fct>,
## #   ano <int>
…
